Analysis of Home Mortgage Disclosure Act Data
…
Bank2007

## # A tibble: 864 x 11
##     year agency_code agency_name applicant_incom loan_amount_000s
##    <dbl>       <dbl> <chr>                  <dbl>            <dbl>
##  1  2007           3 Federal De              120              400
##  2  2007           3 Federal De              220               78
##  3  2007           3 Federal De              246              210
##  4  2007           3 Federal De              113              304
##  5  2007           3 Federal De               58              200
##  6  2007           3 Federal De              200              600
##  7  2007           3 Federal De              149              500
##  8  2007           3 Federal De              126              432
##  9  2007           3 Federal De               76              258
## 10  2007           3 Federal De               73              291
## #  with 854 more rows, and 6 more variables: action_taken_name <chr>,
## #   action_taken <dbl>, applicant_ethnicity_name <chr>,
## #   applicant_ethnicity <dbl>, applicant_sex <dbl>,
## #   hud_median_family_income <dbl>

#864 loans originated by banks in 2007
Bank2017

## # A tibble: 657 x 11
##     year agency_code agency_name applicant_incom loan_amount_000s
##    <dbl>       <dbl> <chr>                  <dbl>            <dbl>
##  1  2017           3 Federal De              157              304
##  2  2017           3 Federal De              117              424
##  3  2017           3 Federal De              127              548
##  4  2017           3 Federal De               70              218
##  5  2017           3 Federal De              114              570
##  6  2017           3 Federal De               72              186
##  7  2017           3 Federal De               43              138
##  8  2017           3 Federal De              205              792
##  9  2017           3 Federal De              204              647
## 10  2017           3 Federal De              105              312
## #  with 647 more rows, and 6 more variables: action_taken_name <chr>,
## #   action_taken <dbl>, applicant_ethnicity_name <chr>,
## #   applicant_ethnicity <dbl>, applicant_sex <dbl>,
## #   hud_median_family_income <dbl>

#647 loans originated by banks in 2017
bankGrowth <- round(100 * ((864 - 647) / 864), 2)
bankGrowth

## [1] 25.12

CU2007

## # A tibble: 1,015 x 11
##     year agency_code agency_name applicant_incom loan_amount_000s
##    <dbl>       <dbl> <chr>                  <dbl>            <dbl>
##  1  2007           5 National C               85               36
##  2  2007           5 National C              141              417
##  3  2007           5 National C               82              255
##  4  2007           5 National C               23               19
##  5  2007           5 National C               54              200
##  6  2007           5 National C              166              400
##  7  2007           5 National C              203              585
##  8  2007           5 National C               75              117
##  9  2007           5 National C              193              675
## 10  2007           5 National C              102              440
## #  with 1,005 more rows, and 6 more variables: action_taken_name <chr>,
## #   action_taken <dbl>, applicant_ethnicity_name <chr>,
## #   applicant_ethnicity <dbl>, applicant_sex <dbl>,
## #   hud_median_family_income <dbl>

#1,015 loans originated
CU2017

## # A tibble: 900 x 11
##     year agency_code agency_name applicant_incom loan_amount_000s
##    <dbl>       <dbl> <chr>                  <dbl>            <dbl>
##  1  2017           5 National C              100              115
##  2  2017           5 National C              345              750
##  3  2017           5 National C              145              679
##  4  2017           5 National C              215              675
##  5  2017           5 National C              181              100
##  6  2017           5 National C            29000            81000
##  7  2017           5 National C              258              150
##  8  2017           5 National C               59               34
##  9  2017           5 National C               69               25
## 10  2017           5 National C               85              255
## #  with 890 more rows, and 6 more variables: action_taken_name <chr>,
## #   action_taken <dbl>, applicant_ethnicity_name <chr>,
## #   applicant_ethnicity <dbl>, applicant_sex <dbl>,
## #   hud_median_family_income <dbl>
…
